<define-tag pagetitle>DSA-4608-1 tiff</define-tag>
<define-tag report_date>2020-1-21</define-tag>
<define-tag secrefs>CVE-2019-14973 CVE-2019-17546</define-tag>
<define-tag packages>tiff</define-tag>
<define-tag isvulnerable>yes</define-tag>
<define-tag fixed>yes</define-tag>
<define-tag fixed-section>no</define-tag>

#use wml::debian::security



</dl>
