<define-tag pagetitle>DLA-2793-1 mosquitto</define-tag>
<define-tag report_date>2021-10-27</define-tag>
<define-tag secrefs>CVE-2017-7655</define-tag>
<define-tag packages>mosquitto</define-tag>
<define-tag isvulnerable>yes</define-tag>
<define-tag fixed>yes</define-tag>
<define-tag fixed-section>no</define-tag>

#use wml::debian::security

