<define-tag pagetitle>DLA-2402-1 golang-go.crypto</define-tag>
<define-tag report_date>2020-10-09</define-tag>
<define-tag secrefs>CVE-2019-11840 CVE-2019-11841 CVE-2020-9283</define-tag>
<define-tag packages>golang-go.crypto</define-tag>
<define-tag isvulnerable>yes</define-tag>
<define-tag fixed>yes</define-tag>
<define-tag fixed-section>no</define-tag>

#use wml::debian::security

