<define-tag pagetitle>DLA-2375-1 inspircd</define-tag>
<define-tag report_date>2020-09-20</define-tag>
<define-tag secrefs>CVE-2019-20917 CVE-2020-25269</define-tag>
<define-tag packages>inspircd</define-tag>
<define-tag isvulnerable>yes</define-tag>
<define-tag fixed>yes</define-tag>
<define-tag fixed-section>no</define-tag>

#use wml::debian::security

