<define-tag pagetitle>DLA-1402-1 exiv2</define-tag>
<define-tag report_date>2018-6-28</define-tag>
<define-tag secrefs>CVE-2018-10958 CVE-2018-10998 CVE-2018-10999 CVE-2018-11531 CVE-2018-12264 CVE-2018-12265 Bug#901706 Bug#901707</define-tag>
<define-tag packages>exiv2</define-tag>
<define-tag isvulnerable>yes</define-tag>
<define-tag fixed>yes</define-tag>
<define-tag fixed-section>no</define-tag>

#use wml::debian::security

