<define-tag pagetitle>DLA-1856-1 patch</define-tag>
<define-tag report_date>2019-7-19</define-tag>
<define-tag secrefs>CVE-2019-13636</define-tag>
<define-tag packages>patch</define-tag>
<define-tag isvulnerable>yes</define-tag>
<define-tag fixed>yes</define-tag>
<define-tag fixed-section>no</define-tag>

#use wml::debian::security

