<define-tag pagetitle>DLA-1658-1 phpmyadmin</define-tag>
<define-tag report_date>2019-2-1</define-tag>
<define-tag secrefs>CVE-2018-19968 CVE-2018-19970</define-tag>
<define-tag packages>phpmyadmin</define-tag>
<define-tag isvulnerable>yes</define-tag>
<define-tag fixed>yes</define-tag>
<define-tag fixed-section>no</define-tag>

#use wml::debian::security

