<define-tag pagetitle>DLA-754-1 tor</define-tag>
<define-tag report_date>2016-12-20</define-tag>
<define-tag secrefs>CVE-2016-1254 Bug##848847</define-tag>
<define-tag packages>tor</define-tag>
<define-tag isvulnerable>yes</define-tag>
<define-tag fixed>yes</define-tag>
<define-tag fixed-section>no</define-tag>

#use wml::debian::security

